draft
…
estimtaed_revenue_l365d

3. Team Information

Team name: Team Team

Members: Grey Gergen, Tyler Davis, Jesus Rodriguez, Jack Macfadyen

4. Plan of Action and Brief Look at Data (with some cleaning)

The data was downloaded from Inside Airbnb.

This data is for New York City, New York, United States. The original data set has 36111 observations of 79 variables. Columns that were not relevant for analysis or provided important information were removed from the data in order for a cleaner data set to work with for further analysis.

# A tibble: 27 × 3
   Field                 Type    Description                                    
   <chr>                 <chr>   <chr>                                          
 1 id                    integer Airbnb's unique identifier for the listing     
 2 name                  text    Name of the listing                            
 3 description           text    Detailed description of the listing            
 4 neighborhood_overview text    Host's description of the neighbourhood        
 5 host_id               integer Airbnb's unique identifier for the host/user   
 6 host_since            date    The date the host/user was created. For hosts …
 7 host_about            text    Description about the host                     
 8 host_response_time    <NA>    <NA>                                           
 9 host_response_rate    <NA>    <NA>                                           
10 host_acceptance_rate  <NA>    That rate at which a host accepts booking requ…
# ℹ 17 more rows
…
